Lab 7: SQL City Murder Mystery
…
annabel <- person %>%
  filter(str_detect(address_street_name, "Franklin Ave"))

morty

# A tibble: 1 × 6
     id name           license_id address_number address_street_name       ssn
  <dbl> <chr>               <dbl>          <dbl> <chr>                   <dbl>
1 14887 Morty Schapiro     118009           4919 Northwestern Dr     111564949

Code

annabel

# A tibble: 45 × 6
      id name              license_id address_number address_street_name     ssn
   <dbl> <chr>                  <dbl>          <dbl> <chr>                 <dbl>
 1 12207 Wilmer Wolever        509484            139 Franklin Ave         6.37e8
 2 16371 Annabel Miller        490173            103 Franklin Ave         3.19e8
 3 17683 Johnnie Schee         968887           1277 Franklin Ave         8.16e8
 4 18651 Carleen Etoll         356746             22 Franklin Ave         1.93e8
 5 22636 Zachary Ybarbo        768359            785 Franklin Ave         2.85e8
 6 24737 Gema Nantz            273410           3968 Franklin Ave         1.81e8
 7 30654 Clarita Rickels       418084           2254 Franklin Ave         7.15e8
 8 32264 Shelby Dezeeuw        735415           1391 Franklin Ave         1.43e8
 9 33793 Amado Mattan          161915             99 Franklin Ave         1.25e8
10 34592 Cordell Lindamood     592762           3657 Franklin Ave         5.10e8
# ℹ 35 more rows

Step 4: Analyze Witness Statements

Code

interview %>%
  filter(person_id %in% c(morty$id, annabel$id))

# A tibble: 28 × 2
   person_id transcript                                                         
       <dbl> <chr>                                                              
 1     33793 wood--(she considered him to be a footman because he was in livery:
 2     88966 like them raw.’                                                    
 3     67292 <NA>                                                               
 4     62292 <NA>                                                               
 5     83003 An enormous puppy was looking down at her with large round eyes, a…
 6     95119 So she sat on, with closed eyes, and half believed herself in      
 7     61001 with a smile. There was a dead silence.                            
 8     22636 <NA>                                                               
 9     60944 Lastly, she pictured to herself how this same little sister of hers
10     84531 way?’, holding her hand on the top of her head to feel which way i…
# ℹ 18 more rows
…
